Warm Up 4
…
a.

After doing a little googling and self research, we see that a tibble is a more modern reimagining of data.frame. They are basically dataframes but they tweak a few of the functions in order to to basically be a bit more modern. Some distinct differences is that the tibble does not change the type of inputs and can have column titles that are unacceptable for standard base R dataframes. However, the two main differences come from the fact that:

-1. A tibble prints only the first 10 rows of the dataframe and that all the columns fit one screen when called upon with additional options to adjust what and how things are printed

-2. When you subset using a tibble, it will only subset the data based off full matching rather than partial matching. Thus they are simply a more strict function and will give you a warning if something does not exist.

b.

You can indeed only import a few columns with by the internal specification of col_types. In this case we would set col_types = c(cc______d_d__). This would allow us to omit the unwanted columns.

read_csv(datafile, col_names = TRUE,col_types = c("cc______d__d___"))

## # A tibble: 477 x 4
##    player            team    salary points
##    <chr>             <chr>    <dbl>  <dbl>
##  1 Al Horford        BOS   26540100    952
##  2 Amir Johnson      BOS   12000000    520
##  3 Avery Bradley     BOS    8269663    894
##  4 Demetrius Jackson BOS    1450000     10
##  5 Gerald Green      BOS    1410598    262
##  6 Isaiah Thomas     BOS    6587132   2199
##  7 Jae Crowder       BOS    6286408    999
##  8 James Young       BOS    1825200     68
##  9 Jaylen Brown      BOS    4743000    515
## 10 Jonas Jerebko     BOS    5000000    299
## # ... with 467 more rows
…
